<svg id="etalon_principal" data-name="etalon principal" xmlns="http://www.w3.org/2000/svg" width="614" height="212" viewBox="0 0 614 212">
  <defs>
    <style>
      .cls-1, .cls-2, .cls-3 {
        fill-rule: evenodd;
      }

      .cls-2 {
        fill: #d62f2f;
      }

      .cls-3 {
        fill: #d94040;
      }
    </style>
  </defs>
  <g id="etalon">
    <path id="e" class="cls-1" d="M204,140V127H167V96h36V83H167V61h37V48H153v92h51Z"/>
    <path id="t_" data-name="t " class="cls-1" d="M249,140H235V61H214V48h56V61H249v79Z"/>
    <path id="A" class="cls-1" d="M266,140l45-97h2l43,97H340l-9-22H292l-10,22H266Zm32-36,13-30h2l12,30H298Z"/>
    <path id="L" class="cls-1" d="M367,140V48h14v79h27v13H367Z"/>
    <path id="o" class="cls-1" d="M460,46a48,48,0,1,1-48,48A48,48,0,0,1,460,46Zm0,14c18.225,0,33,15.222,33,34s-14.775,34-33,34-33-15.222-33-34S441.775,60,460,60Z"/>
    <path id="n" class="cls-1" d="M525,140V42l67,69V48h14v98L539,76v64H525Z"/>
  </g>
  <g id="doors">
    <path id="d" class="cls-2" d="M424,202V162h14s17.107,0.94,17,20c-0.25.2-.179,19.94-18,20C436.893,202.06,424,202,424,202Zm6-6V168h6s12.679,1.512,12,14c-0.107.06,1.964,11.369-12,14C436.036,196.06,430,196,430,196Z"/>
    <path id="o_copy" data-name="o copy" class="cls-2" d="M480,161a21,21,0,1,1-21,21A21,21,0,0,1,480,161Zm0,6.125A14.882,14.882,0,1,1,465.563,182,14.661,14.661,0,0,1,480,167.125Z"/>
    <path id="o_copy_2" data-name="o copy 2" class="cls-2" d="M526,161a21,21,0,1,1-21,21A21,21,0,0,1,526,161Zm0,6.125A14.882,14.882,0,1,1,511.563,182,14.661,14.661,0,0,1,526,167.125Z"/>
    <path id="r" class="cls-3" d="M553,202V162h10s10.1-1.357,12,9c-0.1-.143,0,6,0,6a9.8,9.8,0,0,1-8,8c-0.1-.018,12,17,12,17h-9l-11-17v17h-6Zm6-22V168h5s5.1,0.768,5,6c-0.1-.018-0.027,5.018-5,6C564.027,179.857,559,180,559,180Z"/>
    <path id="s" class="cls-3" d="M586,189l-6,2s0.723,10.393,10,12c-0.223.107,6,0,6,0s9.473-1.857,10-11c-0.223.107,0-5,0-5s0.348-6.732-14-11c-0.1.107-4.4-2.482-4-5-0.223-.268.723-3.607,5-4-0.1.232,2,0,2,0s2.6-.232,5,5c-0.1-.018,5-4,5-4s-1.9-5.232-9-7c-0.1-.143-6,0-6,0s-7.9,1.643-8,9c-0.1.232,0,4,0,4s-0.277,5.643,10,9c0.027,0.232,6.848,2.768,7,6-0.1.107,1.848,7.393-6,8C592.9,196.857,587.5,197,586,189Z"/>
  </g>
  <path id="Shape_1_copy" data-name="Shape 1 copy" class="cls-2" d="M8,179V9h94v4.048L33.8,33.022V154.978L102,174.952V179H8Z"/>
  <path id="Shape_2_copy" data-name="Shape 2 copy" class="cls-2" d="M44.853,90.311V97.69H66.968V90.311"/>
</svg>
